@relation breast_cancer-weka.filters.unsupervised.attribute.Remove-R1-2

@attribute ClumpThickness numeric
@attribute UniformityOfCellSize numeric
@attribute UniformityOfCellShape numeric
@attribute MarginalAdhesion numeric
@attribute SingleEpithelialCellSize numeric
@attribute BareNuclei numeric
@attribute BlandChromatin numeric
@attribute NormalNucleoli numeric
@attribute Mitoses numeric
@attribute ClassName {Benign,Malignant}

@data
5,1,1,1,2,1,3,1,1,Benign
5,4,4,5,7,10,3,2,1,Malignant
3,1,1,1,2,2,3,1,1,Benign
6,8,8,1,3,4,3,7,1,Malignant
4,1,1,3,2,1,3,1,1,Benign
8,10,10,8,7,10,9,7,1,Malignant
1,1,1,1,2,10,3,1,1,Benign
2,1,2,1,2,1,3,1,1,Benign
2,1,1,1,2,1,1,1,5,Benign
4,2,1,1,2,1,2,1,1,Benign
1,1,1,1,1,1,3,1,1,Benign
2,1,1,1,2,1,2,1,1,Benign
5,3,3,3,2,3,4,4,1,Malignant
1,1,1,1,2,3,3,1,1,Benign